…
for (x in c("dplyr", "ggplot2","readxl","plotly"
            ,"psych", "ggfortify")) {
  library(x, character.only = TRUE)
} 

Macroeconomic variables

datos<- read_excel("/Users/Juan Alfredo.DESKTOP-ETJ31JC/Documents/Universidad/Termino 2020 2S/R Samples/Pagina/PIB Argentina_1.xlsx")

dt<- datos[,c(2,4,10,13)]

dt %>% mutate(m= import/PIB)  %>% mutate(x= export/PIB)

## # A tibble: 114 x 6
##        PIB import export ITCRM     m     x
##      <dbl>  <dbl>  <dbl> <dbl> <dbl> <dbl>
##  1 391657. 55833. 45376.    NA 0.143 0.116
##  2 437818. 55469. 51528.    NA 0.127 0.118
##  3 439218. 64247. 48417.    NA 0.146 0.110
##  4 443720. 69336. 47327.    NA 0.156 0.107
##  5 421660. 75389. 47985.    NA 0.179 0.114
##  6 466065. 71189. 58228.    NA 0.153 0.125
##  7 458808. 74677. 57721.    NA 0.163 0.126
##  8 465820. 75378. 58182.    NA 0.162 0.125
##  9 430752. 74600. 62896.    NA 0.173 0.146
## 10 449080. 61634. 78021.    NA 0.137 0.174
## # ... with 104 more rows
…
